…
As can be seen above, the metacore object can be filtered directly, or
by using the `simplify = TRUE` argument, a simplified data frame can be
returned.

``` r
subset_t
#> # A tibble: 25 × 21
#>    dataset variable key_seq order mandatory core  supp_flag type    length label
#>    <chr>   <chr>      <int> <int> <lgl>     <chr> <lgl>     <chr>    <int> <chr>
#>  1 DM      STUDYID        1     1 TRUE      NA    NA        text        12 Stud…
#>  2 DM      DOMAIN        NA     2 TRUE      NA    NA        text         2 Doma…
#>  3 DM      USUBJID        2     3 TRUE      NA    NA        text        11 Uniq…
#>  4 DM      SUBJID        NA     4 TRUE      NA    NA        text         4 Subj…
#>  5 DM      RFSTDTC       NA     5 FALSE     NA    NA        date        10 Subj…
#>  6 DM      RFENDTC       NA     6 FALSE     NA    NA        date        10 Subj…
#>  7 DM      RFXSTDTC      NA     7 FALSE     NA    NA        dateti…     20 Date…
#>  8 DM      RFXENDTC      NA     8 FALSE     NA    NA        dateti…     20 Date…
#>  9 DM      RFICDTC       NA     9 FALSE     NA    NA        dateti…     20 Date…
#> 10 DM      RFPENDTC      NA    10 FALSE     NA    NA        dateti…     20 Date…
#> # ℹ 15 more rows
#> # ℹ 11 more variables: format <chr>, common <lgl>, code_id <chr>,
#> #   derivation_id <chr>, origin <chr>, where <chr>, sig_dig <int>,
#> #   derivation <chr>, codes <list>, idvar <chr>, qeval <chr>
```
